[
  {
    "featureType": "administrative",
    "elementType": "geometry",
    "stylers": [
      {
        "color": "#5f7d95"
      }
    ]
  },
  {
    "featureType": "administrative",
    "elementType": "geometry.fill",
    "stylers": [
      {
        "color": "#dddddd"
      }
    ]
  },
  {
    "featureType": "administrative",
    "elementType": "geometry.stroke",
    "stylers": [
      {
        "color": "#dddddd"
      }
    ]
  },
  {
    "featureType": "administrative",
    "elementType": "labels.text.fill",
    "stylers": [
      {
        "color": "#ffffff"
      }
    ]
  },
  {
    "featureType": "administrative",
    "elementType": "labels.text.stroke",
    "stylers": [
      {
        "color": "#000000"
      }
    ]
  },
  {
    "featureType": "administrative.country",
    "elementType": "geometry.fill",
    "stylers": [
      {
        "color": "#dddddd"
      }
    ]
  },
  {
    "featureType": "administrative.land_parcel",
    "elementType": "geometry.fill",
    "stylers": [
      {
        "color": "#5f7d95"
      }
    ]
  },
  {
    "featureType": "administrative.locality",
    "elementType": "geometry.fill",
    "stylers": [
      {
        "color": "#5f7d95"
      }
    ]
  },
  {
    "featureType": "administrative.neighborhood",
    "elementType": "geometry.fill",
    "stylers": [
      {
        "color": "#5f7d95"
      }
    ]
  },
  {
    "featureType": "administrative.province",
    "elementType": "geometry",
    "stylers": [
      {
        "color": "#dddddd"
      }
    ]
  },
  {
    "featureType": "administrative.province",
    "elementType": "geometry.fill",
    "stylers": [
      {
        "color": "#5f7d95"
      }
    ]
  },
  {
    "featureType": "landscape",
    "elementType": "geometry",
    "stylers": [
      {
        "color": "#5f7d95"
      }
    ]
  },
  {
    "featureType": "landscape",
    "elementType": "geometry.stroke",
    "stylers": [
      {
        "color": "#dddddd"
      }
    ]
  },
  {
    "featureType": "landscape",
    "elementType": "labels.text.fill",
    "stylers": [
      {
        "color": "#ffffff"
      }
    ]
  },
  {
    "featureType": "landscape",
    "elementType": "labels.text.stroke",
    "stylers": [
      {
        "color": "#000000"
      }
    ]
  },
  {
    "featureType": "landscape.man_made",
    "elementType": "geometry",
    "stylers": [
      {
        "color": "#5f7d95"
      }
    ]
  },
  {
    "featureType": "landscape.man_made",
    "elementType": "geometry.fill",
    "stylers": [
      {
        "color": "#5f7d95"
      }
    ]
  },
  {
    "featureType": "landscape.natural",
    "elementType": "geometry",
    "stylers": [
      {
        "color": "#5f7d95"
      }
    ]
  },
  {
    "featureType": "landscape.natural",
    "elementType": "geometry.fill",
    "stylers": [
      {
        "color": "#5f7d95"
      }
    ]
  },
  {
    "featureType": "landscape.natural.landcover",
    "elementType": "geometry.fill",
    "stylers": [
      {
        "color": "#5f7d95"
      }
    ]
  },
  {
    "featureType": "landscape.natural.terrain",
    "elementType": "geometry.fill",
    "stylers": [
      {
        "color": "#5f7d95"
      }
    ]
  },
  {
    "featureType": "poi",
    "elementType": "geometry.fill",
    "stylers": [
      {
        "color": "#5f7d95"
      }
    ]
  },
  {
    "featureType": "poi",
    "elementType": "geometry.stroke",
    "stylers": [
      {
        "color": "#dddddd"
      }
    ]
  },
  {
    "featureType": "poi",
    "elementType": "labels.text.fill",
    "stylers": [
      {
        "color": "#ffffff"
      }
    ]
  },
  {
    "featureType": "poi",
    "elementType": "labels.text.stroke",
    "stylers": [
      {
        "color": "#000000"
      }
    ]
  },
  {
    "featureType": "road",
    "elementType": "geometry.fill",
    "stylers": [
      {
        "color": "#1e4b6f"
      }
    ]
  },
  {
    "featureType": "road",
    "elementType": "geometry.stroke",
    "stylers": [
      {
        "color": "#5f7d95"
      }
    ]
  },
  {
    "featureType": "road",
    "elementType": "labels.text.fill",
    "stylers": [
      {
        "color": "#ffffff"
      }
    ]
  },
  {
    "featureType": "road",
    "elementType": "labels.text.stroke",
    "stylers": [
      {
        "color": "#000000"
      }
    ]
  },
  {
    "featureType": "road.arterial",
    "elementType": "geometry.fill",
    "stylers": [
      {
        "color": "#1e4b6f"
      }
    ]
  },
  {
    "featureType": "road.highway.controlled_access",
    "elementType": "geometry.fill",
    "stylers": [
      {
        "color": "#1e4b6f"
      }
    ]
  },
  {
    "featureType": "road.local",
    "elementType": "geometry.fill",
    "stylers": [
      {
        "color": "#1e4b6f"
      }
    ]
  },
  {
    "featureType": "water",
    "elementType": "geometry.fill",
    "stylers": [
      {
        "color": "#3c4d5a"
      }
    ]
  },
  {
    "featureType": "water",
    "elementType": "labels.text.fill",
    "stylers": [
      {
        "color": "#dddddd"
      }
    ]
  }
]